/home/jobo/Documents/Projects/sbtr/WebApp_TR/src/main/java/com/jobo/service/UserService.java
/home/jobo/Documents/Projects/sbtr/WebApp_TR/src/main/java/com/jobo/repository/ReportRepository.java
/home/jobo/Documents/Projects/sbtr/WebApp_TR/src/main/java/com/jobo/WebAppTrApplication.java
/home/jobo/Documents/Projects/sbtr/WebApp_TR/src/main/java/com/jobo/config/SecurityConfig.java
/home/jobo/Documents/Projects/sbtr/WebApp_TR/src/main/java/com/jobo/service/AuthenticationProvider.java
/home/jobo/Documents/Projects/sbtr/WebApp_TR/src/main/java/com/jobo/model/ReportId.java
/home/jobo/Documents/Projects/sbtr/WebApp_TR/src/main/java/com/jobo/repository/UserRepository.java
/home/jobo/Documents/Projects/sbtr/WebApp_TR/src/main/java/com/jobo/service/ReportService.java
/home/jobo/Documents/Projects/sbtr/WebApp_TR/src/main/java/com/jobo/model/Report.java
/home/jobo/Documents/Projects/sbtr/WebApp_TR/src/main/java/com/jobo/model/User.java
/home/jobo/Documents/Projects/sbtr/WebApp_TR/src/main/java/com/jobo/model/DailyReport.java
